^F:\SDA\PROJET\SPRINT_5\SPRINT_5\BLOCDATA.CPP
/c /ZI /nologo /W3 /WX- /diagnostics:classic /sdl /Od /Oy- /D _MBCS /Gm /EHsc /RTC1 /MDd /GS /fp:precise /Zc:wchar_t /Zc:forScope /Zc:inline /Fo"DEBUG\\" /Fd"DEBUG\VC141.PDB" /Gd /TP /analyze- F:\SDA\PROJET\SPRINT_5\SPRINT_5\BLOCDATA.CPP
^F:\SDA\PROJET\SPRINT_5\SPRINT_5\CONTENEURTD.CPP
/c /ZI /nologo /W3 /WX- /diagnostics:classic /sdl /Od /Oy- /D _MBCS /Gm /EHsc /RTC1 /MDd /GS /fp:precise /Zc:wchar_t /Zc:forScope /Zc:inline /Fo"DEBUG\\" /Fd"DEBUG\VC141.PDB" /Gd /TP /analyze- F:\SDA\PROJET\SPRINT_5\SPRINT_5\CONTENEURTD.CPP
^F:\SDA\PROJET\SPRINT_5\SPRINT_5\CONTENEURTDE.CPP
/c /ZI /nologo /W3 /WX- /diagnostics:classic /sdl /Od /Oy- /D _MBCS /Gm /EHsc /RTC1 /MDd /GS /fp:precise /Zc:wchar_t /Zc:forScope /Zc:inline /Fo"DEBUG\\" /Fd"DEBUG\VC141.PDB" /Gd /TP /analyze- F:\SDA\PROJET\SPRINT_5\SPRINT_5\CONTENEURTDE.CPP
^F:\SDA\PROJET\SPRINT_5\SPRINT_5\FILEAPRIORITE.CPP
/c /ZI /nologo /W3 /WX- /diagnostics:classic /sdl /Od /Oy- /D _MBCS /Gm /EHsc /RTC1 /MDd /GS /fp:precise /Zc:wchar_t /Zc:forScope /Zc:inline /Fo"DEBUG\\" /Fd"DEBUG\VC141.PDB" /Gd /TP /analyze- F:\SDA\PROJET\SPRINT_5\SPRINT_5\FILEAPRIORITE.CPP
^F:\SDA\PROJET\SPRINT_5\SPRINT_5\IDENTIFICATEURMESSAGE.CPP
/c /ZI /nologo /W3 /WX- /diagnostics:classic /sdl /Od /Oy- /D _MBCS /Gm /EHsc /RTC1 /MDd /GS /fp:precise /Zc:wchar_t /Zc:forScope /Zc:inline /Fo"DEBUG\\" /Fd"DEBUG\VC141.PDB" /Gd /TP /analyze- F:\SDA\PROJET\SPRINT_5\SPRINT_5\IDENTIFICATEURMESSAGE.CPP
^F:\SDA\PROJET\SPRINT_5\SPRINT_5\LISTE.CPP
/c /ZI /nologo /W3 /WX- /diagnostics:classic /sdl /Od /Oy- /D _MBCS /Gm /EHsc /RTC1 /MDd /GS /fp:precise /Zc:wchar_t /Zc:forScope /Zc:inline /Fo"DEBUG\\" /Fd"DEBUG\VC141.PDB" /Gd /TP /analyze- F:\SDA\PROJET\SPRINT_5\SPRINT_5\LISTE.CPP
^F:\SDA\PROJET\SPRINT_5\SPRINT_5\MAIN.CPP
/c /ZI /nologo /W3 /WX- /diagnostics:classic /sdl /Od /Oy- /D _MBCS /Gm /EHsc /RTC1 /MDd /GS /fp:precise /Zc:wchar_t /Zc:forScope /Zc:inline /Fo"DEBUG\\" /Fd"DEBUG\VC141.PDB" /Gd /TP /analyze- F:\SDA\PROJET\SPRINT_5\SPRINT_5\MAIN.CPP
^F:\SDA\PROJET\SPRINT_5\SPRINT_5\MESSAGEENCOURS.CPP
/c /ZI /nologo /W3 /WX- /diagnostics:classic /sdl /Od /Oy- /D _MBCS /Gm /EHsc /RTC1 /MDd /GS /fp:precise /Zc:wchar_t /Zc:forScope /Zc:inline /Fo"DEBUG\\" /Fd"DEBUG\VC141.PDB" /Gd /TP /analyze- F:\SDA\PROJET\SPRINT_5\SPRINT_5\MESSAGEENCOURS.CPP
^F:\SDA\PROJET\SPRINT_5\SPRINT_5\MESSAGERIE.CPP
/c /ZI /nologo /W3 /WX- /diagnostics:classic /sdl /Od /Oy- /D _MBCS /Gm /EHsc /RTC1 /MDd /GS /fp:precise /Zc:wchar_t /Zc:forScope /Zc:inline /Fo"DEBUG\\" /Fd"DEBUG\VC141.PDB" /Gd /TP /analyze- F:\SDA\PROJET\SPRINT_5\SPRINT_5\MESSAGERIE.CPP
^F:\SDA\PROJET\SPRINT_5\SPRINT_5\PAQUETRESEAU.CPP
/c /ZI /nologo /W3 /WX- /diagnostics:classic /sdl /Od /Oy- /D _MBCS /Gm /EHsc /RTC1 /MDd /GS /fp:precise /Zc:wchar_t /Zc:forScope /Zc:inline /Fo"DEBUG\\" /Fd"DEBUG\VC141.PDB" /Gd /TP /analyze- F:\SDA\PROJET\SPRINT_5\SPRINT_5\PAQUETRESEAU.CPP
